%YAML 1.1
%TAG !u! tag:unity3d.com,2011:
--- !u!1045 &1
EditorBuildSettings:
  m_ObjectHideFlags: 0
  serializedVersion: 2
  m_Scenes:
  - enabled: 1
    path: Assets/Scenes/Intro.unity
    guid: 444b38ede78e17544b5c8c822cb5aa81
  - enabled: 1
    path: Assets/Scenes/Main.unity
    guid: 7e6b574e0a1a7194c84e2b02c2be6437
  - enabled: 1
    path: Assets/Scenes/Endgame.unity
    guid: c3ba5bf645d5e2543ab4dcb125672928
  - enabled: 1
    path: Assets/Scenes/Witness.unity
    guid: 4554d5c12cde8ed479e82982c18e96b3
  m_configObjects:
    com.unity.addressableassets: {fileID: 11400000, guid: a46c0bb389750134592156dc4d13a7c8, type: 2}
