{
    "stringPairs": [
        {
            "key": "noWarrant",
            "value": "No warrant was issued! {0} has escaped apprehension!" 
        },
        {
            "key": "incorrectWarrant",
            "value": "Warrant has incorrectly identified {0} as the offender! {1} has escaped apprehension!" 
        },
        {
            "key": "outOfTime",
            "value": "Oh no! Your timepod has run out of time! {0} has escaped apprehension!"
        },
        {
            "key": "rtb",
            "value": "Oh no! You shamefully return to Sequel Police HQ empty-handed! {0} has escaped apprehension!"
        },
        {
            "key": "standardVictory",
            "value": "Good job! {0} has been apprehended and {1} has been returned to its rightful owner!"
        },
        {
            "key": "failEndGame",
            "value": " Your repeated failure to end the wild spree of Hymie Lipschitz has resulted in your termination from the Sequel Police! As usual, you've been a real pantload."
        },
        {
            "key": "victoryEndGame",
            "value": "Congratulations! You have successfully apprehended Hymie Lipschitz and now the game is over."
        }
    ]    
}